…
``` r
df1 %>% filter(HOUR >24)
```

    ## # A tibble: 617 × 28
    ## # Groups:   STATENAME, YEAR [109]
    ##    STATENAME  ST_CASE MONTH   DAY  YEAR  HOUR MINUTE RUR_URBNAME LATITUDE
    ##    <chr>        <dbl> <dbl> <dbl> <dbl> <dbl>  <dbl> <chr>          <dbl>
    ##  1 Alabama      10224     4    14  2017    99     99 Rural           30.3
    ##  2 Alabama      10624    10     2  2017    99     99 Urban           30.6
    ##  3 Alaska       20026     6     1  2017    99     99 Rural           55.4
    ##  4 Alaska       20044     8    22  2017    99     99 Rural           64.7
    ##  5 Arizona      40410     1     8  2017    99     99 Rural          100. 
    ##  6 Arizona      40812    12     5  2017    99     99 Urban           32.1
    ##  7 Arizona      40930    12    29  2017    99     99 Rural           32.7
    ##  8 Arkansas     50452     5    27  2017    99     99 Rural           36.2
    ##  9 California   60004     1    14  2017    99     99 Rural           38.1
    ## 10 California   60174     3     6  2017    99     99 Rural           34.9
    ## # ℹ 607 more rows
    ## # ℹ 19 more variables: LONGITUD <dbl>, LGT_CONDNAME <chr>, FATALS <dbl>,
    ## #   DRUNK_DR <dbl>, DAY_WEEK <dbl>, WEATHERNAME <chr>, AGE <dbl>,
    ## #   SEXNAME <chr>, DRINKINGNAME <chr>, DRUGSNAME <chr>, LAG_HRSNAME <chr>,
    ## #   VEH_NO <dbl>, PER_NO <dbl>, ...23 <dbl>, HIT_RUNNAME <chr>,
    ## #   NUMOCCSNAME <chr>, L_STATENAME <chr>, SPEEDRELNAME <chr>, VSPD_LIM <dbl>
…
